RNAseq analysis of OSMR and LIFR
…
- rs13168867 associates with OSMR

- rs10491509 associates with LIFR

Vulnerability data

Import data and have a look at the variable names

## [1] "var00006"          "upid"              "sampleid_aegs"    
## [4] "rs10491509"        "var00011"          "rs13168867"       
## [7] "study_number"      "upid_study_number" "stability"

Select variables and check dataframe

## # A tibble: 1,594 x 4
##    study_number rs10491509 rs13168867 stability
##           <dbl> <fct>      <fct>      <fct>    
##  1          916 GG         CC         2        
##  2          703 00         CT         2        
##  3          411 AA         CC         3        
##  4          906 AA         CT         2        
##  5         1527 GG         TT         1        
##  6          797 GG         TT         2        
##  7         1868 00         CC         2        
##  8          999 GG         TT         0        
##  9         1789 AG         CC         2        
## 10          335 AG         TT         3        
## # ... with 1,584 more rows
…
rs13168867 genotype:

## 
##   TT   CT   CC      <NA> 
##  550  710  264   68    2

From these numbers, we can see that all scores and genotypes are represented in the data, and that there are several samples with missing data

Subset 30 RNAseq patients, select phenotypes and combine with RNAseq data

The RNAseq data only contains 30 patients. Therefore we subset these 30 patients from the vulnerability data, based on study number.

## # A tibble: 30 x 4
##    study_number rs10491509 rs13168867 stability
##           <dbl> <fct>      <fct>      <fct>    
##  1         1267 AG         TT         2        
##  2         1343 AA         CT         1        
##  3         1373 AG         CC         1        
##  4         1374 GG         CT         2        
##  5         1376 AG         CT         1        
##  6         1407 GG         CC         2        
##  7         1504 GG         TT         2        
##  8         1858 AG         CT         3        
##  9         1932 00         CC         2        
## 10         2117 GG         CC         2        
## # ... with 20 more rows
…
