Group comparisons - single gene and total DE
…
Introduction

To check whether the gene expression of OSMR and/or LIFR differ, we performed two types of logistic regression, and additionaly performed differential expression analysis for the entire gene set used, from which we can then filter OSMR/LIFR.

In order for the second part to work, make sure you ran the following two files, saved the dfs and loaded them here:

First, run: RNAseq_analysis_part_1_import_and_tidy.Rmd

Second, run: RNAseq_analysis_part_2_AE.Rmd

Data import, tidying, and selection

From the first Rmd file, we obtain a dataframe df containing expression values of 25,441 genes, including chromosome, strand, and other locational information. The second Rmd file yields the ae dataframe containing all Athero-Express clinical data. We need to put all of this together (expression = assay part, clinical data = metadata part) and make sure to include the vulnerability and genotype in the metadata.

## # A tibble: 51,768 x 378
##    ensembl_gene_id symbol chr    start    end strand ae1026 ae1029 ae1032
##    <chr>           <chr>  <chr>  <int>  <int> <chr>   <dbl>  <dbl>  <dbl>
##  1 ENSG00000184389 A3GAL 01    3.38e7 3.38e7 -           0      0      0
##  2 ENSG00000188984 AADAC 01    1.28e7 1.28e7 +           0      0      0
##  3 ENSG00000204518 AADAC 01    1.27e7 1.27e7 +           0      0      0
##  4 ENSG00000198691 ABCA4  01    9.45e7 9.46e7 -           1      0      0
##  5 ENSG00000135776 ABCB10 01    2.30e8 2.30e8 -           0      0      0
##  6 ENSG00000117528 ABCD3  01    9.49e7 9.50e7 +           2      3      0
##  7 ENSG00000143322 ABL2   01    1.79e8 1.79e8 -          26     11      4
##  8 ENSG00000117054 ACADM  01    7.62e7 7.63e7 +           1      3      0
##  9 ENSG00000131584 ACAP3  01    1.23e6 1.24e6 -           1      2      0
## 10 ENSG00000182827 ACBD3  01    2.26e8 2.26e8 -          10      8      1
## #  with 51,758 more rows, and 369 more variables: ae1035 <dbl>,
## #   ae1054 <dbl>, ae1066 <dbl>, ae1074 <dbl>, ae1082 <dbl>, ae1100 <dbl>,
## #   ae112 <dbl>, ae113 <dbl>, ae114 <dbl>, ae1155 <dbl>, ae1157 <dbl>,
## #   ae116 <dbl>, ae1160 <dbl>, ae117 <dbl>, ae1173 <dbl>, ae1174 <dbl>,
## #   ae1178 <dbl>, ae1182 <dbl>, ae12 <dbl>, ae1203 <dbl>, ae121 <dbl>,
## #   ae1218 <dbl>, ae1229 <dbl>, ae1231 <dbl>, ae1248 <dbl>, ae1249 <dbl>,
## #   ae125 <dbl>, ae1258 <dbl>, ae1260 <dbl>, ae1286 <dbl>, ae1287 <dbl>,
## #   ae1296 <dbl>, ae1297 <dbl>, ae130 <dbl>, ae1303 <dbl>, ae1305 <dbl>,
## #   ae1306 <dbl>, ae1311 <dbl>, ae1324 <dbl>, ae1326 <dbl>, ae1334 <dbl>,
## #   ae1343 <dbl>, ae1346 <dbl>, ae1349 <dbl>, ae1351 <dbl>, ae1360 <dbl>,
## #   ae1367 <dbl>, ae137 <dbl>, ae1375 <dbl>, ae138 <dbl>, ae1389 <dbl>,
## #   ae1390 <dbl>, ae1402 <dbl>, ae1410 <dbl>, ae1411 <dbl>, ae1412 <dbl>,
## #   ae1420 <dbl>, ae1422 <dbl>, ae1425 <dbl>, ae1431 <dbl>, ae1446 <dbl>,
## #   ae1449 <dbl>, ae1461 <dbl>, ae147 <dbl>, ae1473 <dbl>, ae1481 <dbl>,
## #   ae1484 <dbl>, ae1495 <dbl>, ae1497 <dbl>, ae15 <dbl>, ae150 <dbl>,
## #   ae1500 <dbl>, ae1506 <dbl>, ae1514 <dbl>, ae1521 <dbl>, ae1524 <dbl>,
## #   ae1530 <dbl>, ae1532 <dbl>, ae1534 <dbl>, ae1548 <dbl>, ae1555 <dbl>,
## #   ae1567 <dbl>, ae1568 <dbl>, ae1576 <dbl>, ae158 <dbl>, ae1598 <dbl>,
## #   ae160 <dbl>, ae1601 <dbl>, ae1602 <dbl>, ae1607 <dbl>, ae161 <dbl>,
## #   ae1616 <dbl>, ae1618 <dbl>, ae1629 <dbl>, ae1634 <dbl>, ae1658 <dbl>,
## #   ae1661 <dbl>, ae1669 <dbl>, ae1675 <dbl>, ae1676 <dbl>, 

## # A tibble: 1,594 x 4
##    study_number rs10491509 rs13168867 stability
##    <chr>        <fct>      <fct>      <fct>    
##  1 ae916        GG         CC         2        
##  2 ae703        00         CT         2        
##  3 ae411        AA         CC         3        
##  4 ae906        AA         CT         2        
##  5 ae1527       GG         TT         1        
##  6 ae797        GG         TT         2        
##  7 ae1868       00         CC         2        
##  8 ae999        GG         TT         0        
##  9 ae1789       AG         CC         2        
## 10 ae335        AG         TT         3        
## #  with 1,584 more rows
…
Furthermore, the expression_data df was gathered into a long form df for annotation with vulnerability variables from vsd object, and later visualization and statistics.

## # A tibble: 658 x 7
##    gene_ensembl symbol patient expression_value stability rs10491509
##    <chr>        <chr>  <chr>              <dbl> <fct>     <fct>     
##  1 ENSG0000011 LIFR   ae1026              1.98 1         GG        
##  2 ENSG0000011 LIFR   ae1029              2.50 2         AA        
##  3 ENSG0000011 LIFR   ae1032              1.51 1         GG        
##  4 ENSG0000011 LIFR   ae1035              2.57 2         AG        
##  5 ENSG0000011 LIFR   ae1054              2.32 0         GG        
##  6 ENSG0000011 LIFR   ae1066              2.34 4         ""        
##  7 ENSG0000011 LIFR   ae1082              2.25 0         AG        
##  8 ENSG0000011 LIFR   ae1100              1.81 1         ""        
##  9 ENSG0000011 LIFR   ae112               1.88 0         GG        
## 10 ENSG0000011 LIFR   ae113               2.01 2         GG        
## #  with 648 more rows, and 1 more variable: rs13168867 <fct>
…
